741819 307573 509
842573 189888 525
861016 486351 525
700033 315194 509
870974 218266 525
410082 584857 470
727734 873913 525
162112 922294 525
430396 894173 525
461419 750887 509
710651 707979 380
476798 826612 509
951456 874130 507
880073 782033 525
324006 949605 525
75794 631642 509
22658 847634 525
508357 556845 470
905373 860291 445
672253 633255 442
104375 248862 443
289843 894272 525
660275 576914 509
206068 46969 383
856809 825081 525
810608 401689 509
351643 680916 509
15790 378934 443
682192 707426 504
93790 847674 525
135725 85483 354
42400 136807 354
99869 723403 509
926230 254290 525
628186 567333 509
775006 825362 468
703810 39320 509
168426 751180 509
732125 723353 380
5976 313546 443
543509 324170 470
420968 554471 470
178878 552187 470
589889 208069 470
262106 219916 443
546759 291047 470
568224 56759 470
620414 807163 509
167108 296491 443
775982 990470 525
622148 498314 470
515698 674209 509
942385 945377 383
163372 778329 509
396437 313875 441
886708 523211 525
357403 893149 525
124999 830835 509
251821 792334 509
166911 370087 443
661839 682201 442
147151 233241 443
489862 860158 525
303255 873176 525
773609 253426 509
250684 54339 443
543501 560331 452
433830 70913 449
226076 240189 443
36697 199245 383
6300 601195 470
468146 35677 449
642770 634242 416
411921 740208 509
486670 346097 449
820262 840585 525
443469 901627 525
826496 353427 509
418400 474256 444
54903 392573 443
776548 824000 468
3138 378468 443
790432 943071 525
268637 726526 509
321834 501497 449
312617 735637 509
412271 812031 509
569327 338927 470
475236 427472 444
390416 422278 449
754850 968147 525
44146 524137 470
348964 665944 509
302558 417372 449
832506 827732 419
479726 216509 449
492011 108072 449
838443 616407 525
405022 100670 443
756237 887509 525
247784 460802 449
470234 661615 509
454296 559602 470
292816 1290 443
498487 872224 525
990030 767013 525
98198 995704 525
895306 775110 525
443407 373147 449
401744 25030 443
874772 199213 525
503409 232228 449
817936 674057 504
101036 39259 351
1 12 20
